Flow report for Next186_SoC
Mon Jul 09 17:19:52 2018
Quartus II 64-Bit Version 13.0.1 Build 232 06/12/2013 Service Pack 1 SJ Web Edition


---------------------
; Table of Contents ;
---------------------
  1. Legal Notice
  2. Flow Summary
  3. Flow Settings
  4. Flow Non-Default Global Settings
  5. Flow Elapsed Time
  6. Flow OS Summary
  7. Flow Log
  8. Flow Messages
  9. Flow Suppressed Messages



----------------
; Legal Notice ;
----------------
Copyright (C) 1991-2013 Altera Corporation
Your use of Altera Corporation's design tools, logic functions 
and other software and tools, and its AMPP partner logic 
functions, and any output files from any of the foregoing 
(including device programming or simulation files), and any 
associated documentation or information are expressly subject 
to the terms and conditions of the Altera Program License 
Subscription Agreement, Altera MegaCore Function License 
Agreement, or other applicable license agreement, including, 
without limitation, that your use is for the sole purpose of 
programming logic devices manufactured by Altera and sold by 
Altera or its authorized distributors.  Please refer to the 
applicable agreement for further details.



+--------------------------------------------------------------------------------------+
; Flow Summary                                                                         ;
+------------------------------------+-------------------------------------------------+
; Flow Status                        ; Successful - Mon Jul 09 17:19:52 2018           ;
; Quartus II 64-Bit Version          ; 13.0.1 Build 232 06/12/2013 SP 1 SJ Web Edition ;
; Revision Name                      ; Next186_SoC                                     ;
; Top-level Entity Name              ; Next186_SoC                                     ;
; Family                             ; Cyclone IV E                                    ;
; Device                             ; EP4CE22F17C8                                    ;
; Timing Models                      ; Final                                           ;
; Total logic elements               ; 13,658 / 22,320 ( 61 % )                        ;
;     Total combinational functions  ; 11,886 / 22,320 ( 53 % )                        ;
;     Dedicated logic registers      ; 5,400 / 22,320 ( 24 % )                         ;
; Total registers                    ; 5470                                            ;
; Total pins                         ; 81 / 154 ( 53 % )                               ;
; Total virtual pins                 ; 0                                               ;
; Total memory bits                  ; 510,736 / 608,256 ( 84 % )                      ;
; Embedded Multiplier 9-bit elements ; 12 / 132 ( 9 % )                                ;
; Total PLLs                         ; 2 / 4 ( 50 % )                                  ;
+------------------------------------+-------------------------------------------------+


+-----------------------------------------+
; Flow Settings                           ;
+-------------------+---------------------+
; Option            ; Setting             ;
+-------------------+---------------------+
; Start date & time ; 07/09/2018 17:13:48 ;
; Main task         ; Compilation         ;
; Revision Name     ; Next186_SoC         ;
+-------------------+---------------------+


+----------------------------------------------------------------------------------------------------------------------------------------+
; Flow Non-Default Global Settings                                                                                                       ;
+-------------------------------------------------+---------------------------------------+---------------+-------------+----------------+
; Assignment Name                                 ; Value                                 ; Default Value ; Entity Name ; Section Id     ;
+-------------------------------------------------+---------------------------------------+---------------+-------------+----------------+
; COMPILER_SIGNATURE_ID                           ; 163683365256221.153116722811240       ; --            ; --          ; --             ;
; EDA_OUTPUT_DATA_FORMAT                          ; Verilog Hdl                           ; --            ; --          ; eda_simulation ;
; EDA_SIMULATION_TOOL                             ; ModelSim (Verilog)                    ; <None>        ; --          ; --             ;
; EDA_TIME_SCALE                                  ; 1 ps                                  ; --            ; --          ; eda_simulation ;
; FITTER_EFFORT                                   ; Standard Fit                          ; Auto Fit      ; --          ; --             ;
; IP_TOOL_NAME                                    ; FIFO                                  ; --            ; --          ; --             ;
; IP_TOOL_NAME                                    ; RAM: 2-PORT                           ; --            ; --          ; --             ;
; IP_TOOL_NAME                                    ; RAM: 2-PORT                           ; --            ; --          ; --             ;
; IP_TOOL_NAME                                    ; FIFO                                  ; --            ; --          ; --             ;
; IP_TOOL_NAME                                    ; ALTPLL                                ; --            ; --          ; --             ;
; IP_TOOL_NAME                                    ; ALTPLL                                ; --            ; --          ; --             ;
; IP_TOOL_NAME                                    ; FIFO                                  ; --            ; --          ; --             ;
; IP_TOOL_NAME                                    ; RAM: 2-PORT                           ; --            ; --          ; --             ;
; IP_TOOL_NAME                                    ; RAM: 2-PORT                           ; --            ; --          ; --             ;
; IP_TOOL_NAME                                    ; RAM: 2-PORT                           ; --            ; --          ; --             ;
; IP_TOOL_NAME                                    ; ALTDDIO_OUT                           ; --            ; --          ; --             ;
; IP_TOOL_NAME                                    ; RAM: 2-PORT                           ; --            ; --          ; --             ;
; IP_TOOL_NAME                                    ; FIFO                                  ; --            ; --          ; --             ;
; IP_TOOL_VERSION                                 ; 17.0                                  ; --            ; --          ; --             ;
; IP_TOOL_VERSION                                 ; 17.0                                  ; --            ; --          ; --             ;
; IP_TOOL_VERSION                                 ; 17.0                                  ; --            ; --          ; --             ;
; IP_TOOL_VERSION                                 ; 17.0                                  ; --            ; --          ; --             ;
; IP_TOOL_VERSION                                 ; 13.0                                  ; --            ; --          ; --             ;
; IP_TOOL_VERSION                                 ; 13.0                                  ; --            ; --          ; --             ;
; IP_TOOL_VERSION                                 ; 17.0                                  ; --            ; --          ; --             ;
; IP_TOOL_VERSION                                 ; 17.0                                  ; --            ; --          ; --             ;
; IP_TOOL_VERSION                                 ; 17.0                                  ; --            ; --          ; --             ;
; IP_TOOL_VERSION                                 ; 17.0                                  ; --            ; --          ; --             ;
; IP_TOOL_VERSION                                 ; 17.0                                  ; --            ; --          ; --             ;
; IP_TOOL_VERSION                                 ; 17.0                                  ; --            ; --          ; --             ;
; IP_TOOL_VERSION                                 ; 17.0                                  ; --            ; --          ; --             ;
; MAX_CORE_JUNCTION_TEMP                          ; 85                                    ; --            ; --          ; --             ;
; MIN_CORE_JUNCTION_TEMP                          ; 0                                     ; --            ; --          ; --             ;
; MISC_FILE                                       ; q16_bb.v                              ; --            ; --          ; --             ;
; MISC_FILE                                       ; datamem16_bb.v                        ; --            ; --          ; --             ;
; MISC_FILE                                       ; instrmem_bb.v                         ; --            ; --          ; --             ;
; MISC_FILE                                       ; qdsp_bb.v                             ; --            ; --          ; --             ;
; MISC_FILE                                       ; dcm_cpu_bb.v                          ; --            ; --          ; --             ;
; MISC_FILE                                       ; dcm_cpu.ppf                           ; --            ; --          ; --             ;
; MISC_FILE                                       ; dcm_bb.v                              ; --            ; --          ; --             ;
; MISC_FILE                                       ; dcm.ppf                               ; --            ; --          ; --             ;
; MISC_FILE                                       ; fifo_bb.v                             ; --            ; --          ; --             ;
; MISC_FILE                                       ; DAC_SRAM_bb.v                         ; --            ; --          ; --             ;
; MISC_FILE                                       ; sr_font_bb.v                          ; --            ; --          ; --             ;
; MISC_FILE                                       ; cache_bb.v                            ; --            ; --          ; --             ;
; MISC_FILE                                       ; dd_buf.bsf                            ; --            ; --          ; --             ;
; MISC_FILE                                       ; dd_buf_inst.v                         ; --            ; --          ; --             ;
; MISC_FILE                                       ; dd_buf_bb.v                           ; --            ; --          ; --             ;
; MISC_FILE                                       ; dd_buf.inc                            ; --            ; --          ; --             ;
; MISC_FILE                                       ; dd_buf.cmp                            ; --            ; --          ; --             ;
; MISC_FILE                                       ; dd_buf.ppf                            ; --            ; --          ; --             ;
; MISC_FILE                                       ; opl3_mem_bb.v                         ; --            ; --          ; --             ;
; MISC_FILE                                       ; opl3_in_bb.v                          ; --            ; --          ; --             ;
; NUM_PARALLEL_PROCESSORS                         ; All                                   ; --            ; --          ; --             ;
; OUTPUT_IO_TIMING_FAR_END_VMEAS                  ; Half Signal Swing                     ; --            ; --          ; --             ;
; OUTPUT_IO_TIMING_FAR_END_VMEAS                  ; Half Signal Swing                     ; --            ; --          ; --             ;
; OUTPUT_IO_TIMING_NEAR_END_VMEAS                 ; Half Vccio                            ; --            ; --          ; --             ;
; OUTPUT_IO_TIMING_NEAR_END_VMEAS                 ; Half Vccio                            ; --            ; --          ; --             ;
; PARTITION_COLOR                                 ; 16764057                              ; --            ; --          ; Top            ;
; PARTITION_FITTER_PRESERVATION_LEVEL             ; PLACEMENT_AND_ROUTING                 ; --            ; --          ; Top            ;
; PARTITION_NETLIST_TYPE                          ; SOURCE                                ; --            ; --          ; Top            ;
; PHYSICAL_SYNTHESIS_COMBO_LOGIC_FOR_AREA         ; On                                    ; Off           ; --          ; --             ;
; PHYSICAL_SYNTHESIS_EFFORT                       ; Extra                                 ; Normal        ; --          ; --             ;
; PHYSICAL_SYNTHESIS_MAP_LOGIC_TO_MEMORY_FOR_AREA ; On                                    ; Off           ; --          ; --             ;
; POWER_BOARD_THERMAL_MODEL                       ; None (CONSERVATIVE)                   ; --            ; --          ; --             ;
; POWER_PRESET_COOLING_SOLUTION                   ; 23 MM HEAT SINK WITH 200 LFPM AIRFLOW ; --            ; --          ; --             ;
; ROUTER_TIMING_OPTIMIZATION_LEVEL                ; MAXIMUM                               ; Normal        ; --          ; --             ;
; SEED                                            ; 7                                     ; 1             ; --          ; --             ;
; VERILOG_INPUT_VERSION                           ; SystemVerilog_2005                    ; Verilog_2001  ; --          ; --             ;
; VERILOG_SHOW_LMF_MAPPING_MESSAGES               ; Off                                   ; --            ; --          ; --             ;
+-------------------------------------------------+---------------------------------------+---------------+-------------+----------------+


+-------------------------------------------------------------------------------------------------------------------------------+
; Flow Elapsed Time                                                                                                             ;
+---------------------------+--------------+-------------------------+---------------------+------------------------------------+
; Module Name               ; Elapsed Time ; Average Processors Used ; Peak Virtual Memory ; Total CPU Time (on all processors) ;
+---------------------------+--------------+-------------------------+---------------------+------------------------------------+
; Analysis & Synthesis      ; 00:01:28     ; 1.0                     ; 4771 MB             ; 00:01:28                           ;
; Fitter                    ; 00:03:31     ; 2.6                     ; 5494 MB             ; 00:04:58                           ;
; Assembler                 ; 00:00:02     ; 1.0                     ; 4633 MB             ; 00:00:03                           ;
; TimeQuest Timing Analyzer ; 00:00:32     ; 1.5                     ; 4974 MB             ; 00:00:39                           ;
; EDA Netlist Writer        ; 00:00:16     ; 1.0                     ; 4750 MB             ; 00:00:16                           ;
; Total                     ; 00:05:49     ; --                      ; --                  ; 00:07:24                           ;
+---------------------------+--------------+-------------------------+---------------------+------------------------------------+


+----------------------------------------------------------------------------------------+
; Flow OS Summary                                                                        ;
+---------------------------+------------------+-----------+------------+----------------+
; Module Name               ; Machine Hostname ; OS Name   ; OS Version ; Processor type ;
+---------------------------+------------------+-----------+------------+----------------+
; Analysis & Synthesis      ; DESKTOP-84RDELE  ; Windows 7 ; 6.2        ; x86_64         ;
; Fitter                    ; DESKTOP-84RDELE  ; Windows 7 ; 6.2        ; x86_64         ;
; Assembler                 ; DESKTOP-84RDELE  ; Windows 7 ; 6.2        ; x86_64         ;
; TimeQuest Timing Analyzer ; DESKTOP-84RDELE  ; Windows 7 ; 6.2        ; x86_64         ;
; EDA Netlist Writer        ; DESKTOP-84RDELE  ; Windows 7 ; 6.2        ; x86_64         ;
+---------------------------+------------------+-----------+------------+----------------+


------------
; Flow Log ;
------------
quartus_map --read_settings_files=on --write_settings_files=off Next186_SoC -c Next186_SoC
quartus_fit --read_settings_files=off --write_settings_files=off Next186_SoC -c Next186_SoC
quartus_asm --read_settings_files=off --write_settings_files=off Next186_SoC -c Next186_SoC
quartus_sta Next186_SoC -c Next186_SoC
quartus_eda --read_settings_files=off --write_settings_files=off Next186_SoC -c Next186_SoC



