Assembler report for FPGAPCE
Fri Jan 19 09:58:35 2018
Quartus II 64-Bit Version 13.0.1 Build 232 06/12/2013 Service Pack 1 SJ Web Edition


---------------------
; Table of Contents ;
---------------------
  1. Legal Notice
  2. Assembler Summary
  3. Assembler Settings
  4. Assembler Generated Files
  5. Assembler Device Options: D:/Documentacao/Eletronica/FPGA/FPGAPCE-master/syn/mist/FPGAPCE.sof
  6. Assembler Device Options: D:/Documentacao/Eletronica/FPGA/FPGAPCE-master/syn/mist/FPGAPCE.pof
  7. Assembler Device Options: D:/Documentacao/Eletronica/FPGA/FPGAPCE-master/syn/mist/FPGAPCE.rbf
  8. Assembler Messages



----------------
; Legal Notice ;
----------------
Copyright (C) 1991-2013 Altera Corporation
Your use of Altera Corporation's design tools, logic functions 
and other software and tools, and its AMPP partner logic 
functions, and any output files from any of the foregoing 
(including device programming or simulation files), and any 
associated documentation or information are expressly subject 
to the terms and conditions of the Altera Program License 
Subscription Agreement, Altera MegaCore Function License 
Agreement, or other applicable license agreement, including, 
without limitation, that your use is for the sole purpose of 
programming logic devices manufactured by Altera and sold by 
Altera or its authorized distributors.  Please refer to the 
applicable agreement for further details.



+---------------------------------------------------------------+
; Assembler Summary                                             ;
+-----------------------+---------------------------------------+
; Assembler Status      ; Successful - Fri Jan 19 09:58:35 2018 ;
; Revision Name         ; FPGAPCE                               ;
; Top-level Entity Name ; MIST_Toplevel                         ;
; Family                ; Cyclone III                           ;
; Device                ; EP3C25E144C7                          ;
+-----------------------+---------------------------------------+


+--------------------------------------------------------------------------------------------------------+
; Assembler Settings                                                                                     ;
+-----------------------------------------------------------------------------+----------+---------------+
; Option                                                                      ; Setting  ; Default Value ;
+-----------------------------------------------------------------------------+----------+---------------+
; Use smart compilation                                                       ; On       ; Off           ;
; Use configuration device                                                    ; On       ; Off           ;
; Generate Raw Binary File (.rbf) For Target Device                           ; On       ; Off           ;
; Enable parallel Assembler and TimeQuest Timing Analyzer during compilation  ; On       ; On            ;
; Enable compact report table                                                 ; Off      ; Off           ;
; Generate compressed bitstreams                                              ; On       ; On            ;
; Compression mode                                                            ; Off      ; Off           ;
; Clock source for configuration device                                       ; Internal ; Internal      ;
; Clock frequency of the configuration device                                 ; 10 MHZ   ; 10 MHz        ;
; Divide clock frequency by                                                   ; 1        ; 1             ;
; Auto user code                                                              ; On       ; On            ;
; Configuration device                                                        ; Auto     ; Auto          ;
; Configuration device auto user code                                         ; Off      ; Off           ;
; Generate Tabular Text File (.ttf) For Target Device                         ; Off      ; Off           ;
; Generate Hexadecimal (Intel-Format) Output File (.hexout) for Target Device ; Off      ; Off           ;
; Hexadecimal Output File start address                                       ; 0        ; 0             ;
; Hexadecimal Output File count direction                                     ; Up       ; Up            ;
; Release clears before tri-states                                            ; Off      ; Off           ;
; Auto-restart configuration after error                                      ; On       ; On            ;
; Enable OCT_DONE                                                             ; Off      ; Off           ;
; Generate Serial Vector Format File (.svf) for Target Device                 ; Off      ; Off           ;
; Generate a JEDEC STAPL Format File (.jam) for Target Device                 ; Off      ; Off           ;
; Generate a compressed Jam STAPL Byte Code 2.0 File (.jbc) for Target Device ; Off      ; Off           ;
; Generate a compressed Jam STAPL Byte Code 2.0 File (.jbc) for Target Device ; On       ; On            ;
+-----------------------------------------------------------------------------+----------+---------------+


+---------------------------------------------------------------------+
; Assembler Generated Files                                           ;
+---------------------------------------------------------------------+
; File Name                                                           ;
+---------------------------------------------------------------------+
; D:/Documentacao/Eletronica/FPGA/FPGAPCE-master/syn/mist/FPGAPCE.sof ;
; D:/Documentacao/Eletronica/FPGA/FPGAPCE-master/syn/mist/FPGAPCE.pof ;
; D:/Documentacao/Eletronica/FPGA/FPGAPCE-master/syn/mist/FPGAPCE.rbf ;
+---------------------------------------------------------------------+


+-----------------------------------------------------------------------------------------------+
; Assembler Device Options: D:/Documentacao/Eletronica/FPGA/FPGAPCE-master/syn/mist/FPGAPCE.sof ;
+----------------+------------------------------------------------------------------------------+
; Option         ; Setting                                                                      ;
+----------------+------------------------------------------------------------------------------+
; Device         ; EP3C25E144C7                                                                 ;
; JTAG usercode  ; 0x00A863A6                                                                   ;
; Checksum       ; 0x00A863A6                                                                   ;
+----------------+------------------------------------------------------------------------------+


+-----------------------------------------------------------------------------------------------+
; Assembler Device Options: D:/Documentacao/Eletronica/FPGA/FPGAPCE-master/syn/mist/FPGAPCE.pof ;
+--------------------+--------------------------------------------------------------------------+
; Option             ; Setting                                                                  ;
+--------------------+--------------------------------------------------------------------------+
; Device             ; EPCS16                                                                   ;
; JTAG usercode      ; 0x00000000                                                               ;
; Checksum           ; 0x1BEC46CE                                                               ;
; Compression Ratio  ; 2                                                                        ;
+--------------------+--------------------------------------------------------------------------+


+-----------------------------------------------------------------------------------------------+
; Assembler Device Options: D:/Documentacao/Eletronica/FPGA/FPGAPCE-master/syn/mist/FPGAPCE.rbf ;
+---------------------+-------------------------------------------------------------------------+
; Option              ; Setting                                                                 ;
+---------------------+-------------------------------------------------------------------------+
; Raw Binary File     ;                                                                         ;
;  Compression Ratio  ; 2                                                                       ;
+---------------------+-------------------------------------------------------------------------+


+--------------------+
; Assembler Messages ;
+--------------------+
Info: *******************************************************************
Info: Running Quartus II 64-Bit Assembler
    Info: Version 13.0.1 Build 232 06/12/2013 Service Pack 1 SJ Web Edition
    Info: Processing started: Fri Jan 19 09:58:32 2018
Info: Command: quartus_asm --read_settings_files=off --write_settings_files=off FPGAPCE -c FPGAPCE
Info (115031): Writing out detailed assembly data for power analysis
Info (115030): Assembler is generating device programming files
Info: Quartus II 64-Bit Assembler was successful. 0 errors, 0 warnings
    Info: Peak virtual memory: 510 megabytes
    Info: Processing ended: Fri Jan 19 09:58:35 2018
    Info: Elapsed time: 00:00:03
    Info: Total CPU time (on all processors): 00:00:03


