-- http://srecord.sourceforge.net/
--
-- Generated automatically by srec_cat -o --mif
--
DEPTH = 9747;
WIDTH = 8;
ADDRESS_RADIX = HEX;
DATA_RADIX = HEX;
CONTENT BEGIN
0000: F3 ED 56 C3 80 00 FF FF ED 4D FF FF FF FF FF FF ED 4D FF FF FF FF FF FF;
0018: ED 4D FF FF FF FF FF FF ED 4D FF FF FF FF FF FF ED 4D FF FF FF FF FF FF;
0030: ED 4D FF FF FF FF FF FF ED 4D FF FF FF FF FF FF FF FF FF FF FF FF FF FF;
0048: FF FF FF FF FF FF FF FF FF FF FF FF FF FF FF FF FF FF FF FF FF FF FF FF;
0060: FF FF FF FF FF FF ED 45 FF FF FF FF FF FF FF FF FF FF FF FF FF FF FF FF;
0078: FF FF FF FF FF FF FF FF 31 FF FF F3 3E 00 21 00 40 11 01 40 01 FF BF ED;
0090: B0 CD FD 25 CD F6 06 C3 00 01 FF FF FF FF FF FF FF FF FF FF FF FF FF FF;
00A8: FF FF FF FF FF FF FF FF FF FF FF FF FF FF FF FF FF FF FF FF FF FF FF FF;
00C0: FF FF FF FF FF FF FF FF FF FF FF FF FF FF FF FF FF FF FF FF FF FF FF FF;
00D8: FF FF FF FF FF FF FF FF FF FF FF FF FF FF FF FF FF FF FF FF FF FF FF FF;
00F0: FF FF FF FF FF FF FF FF FF FF FF FF FF FF FF FF 76 18 FD CD 61 22 3E 02;
0108: D3 FE 21 00 0C E5 CD A3 22 F1 C1 E1 E5 C5 E5 CD 50 24 F1 11 E8 FD 4B 42;
0120: 0B 59 78 57 B1 20 F7 11 E8 FD 4B 42 0B 59 78 57 B1 20 F7 C9 3A 00 F8 C6;
0138: 04 F5 33 AF F5 33 CD A3 22 21 4A 01 E3 CD 50 24 F1 C9 2D 2D 3E 00 3A 00;
0150: F8 C6 04 F5 33 AF F5 33 CD A3 22 21 64 01 E3 CD 50 24 F1 C9 20 20 20 00;
0168: 21 01 F8 36 00 3E F7 DB FE E6 10 20 0E 21 01 F8 36 02 3E F7 DB FE E6 10;
0180: 28 F8 C9 3E EF DB FE CB 67 20 0E 21 01 F8 36 04 3E EF DB FE E6 10 28 F8;
0198: C9 CB 5F 20 0E 21 01 F8 36 08 3E EF DB FE E6 08 28 F8 C9 CB 57 20 0E 21;
01B0: 01 F8 36 01 3E EF DB FE E6 04 28 F8 C9 3E 7F DB FE 0F 38 0D 21 01 F8 36;
01C8: 10 3E 7F DB FE 0F 30 F9 C9 3E BF DB FE 0F 38 0D 21 01 F8 36 10 3E BF DB;
01E0: FE 0F 30 F9 C9 3E 26 DB 3B E6 08 28 16 11 50 46 1B 7A B3 20 FB 21 01 F8;
01F8: 36 08 3E 26 DB 3B E6 08 C8 18 F7 3E 26 DB 3B E6 04 28 1E 11 50 46 1B 7A;
0210: B3 20 FB 3E 26 DB 3B E6 04 28 0E 21 01 F8 36 04 3E 26 DB 3B E6 04 C8 18;
0228: F7 3E 26 DB 3B E6 02 28 16 11 50 46 1B 7A B3 20 FB 21 01 F8 36 02 3E 26;
0240: DB 3B E6 02 C8 18 F7 3E 26 DB 3B 0F 30 15 11 50 46 1B 7A B3 20 FB 21 01;
0258: F8 36 01 3E 26 DB 3B 0F D0 18 F8 3E 26 DB 3B E6 10 CA 6D 01 11 50 46 1B;
0270: 7A B3 20 FB 21 01 F8 36 10 3E 26 DB 3B E6 10 20 F8 C9 F5 21 06 00 39 7E;
0288: FD 21 00 00 FD 39 FD 77 00 21 07 00 39 7E FD 21 00 00 FD 39 FD 77 01 FD;
02A0: 21 04 00 FD 39 FD 5E 00 FD 56 01 01 00 00 21 08 00 39 79 96 78 23 9E E2;
02B8: BC 02 EE 80 F2 D5 02 E1 E5 7E FD 21 00 00 FD 39 FD 34 00 20 03 FD 34 01;
02D0: 12 13 03 18 D9 AF 12 F1 C9 F5 F5 01 00 00 21 00 00 E3 11 00 00 21 06 00;
02E8: 39 7E FD 21 00 00 FD 39 FD 96 00 23 7E FD 9E 01 E2 FD 02 EE 80 FA 38 03;
0300: FD 21 02 00 FD 39 FD 73 00 FD 72 01 21 57 FA FD 7E 00 96 FD 7E 01 23 9E;
0318: 30 1E D5 D5 CD AE 16 F1 D1 4D 7C 47 B5 28 0E FD 21 00 00 FD 39 FD 34 00;
0330: 20 03 FD 34 01 13 18 AD 69 60 F1 F1 C9 21 02 00 39 3A 02 F8 86 5F 3A 03;
0348: F8 23 8E 57 D5 CD D9 02 F1 EB 7A B3 C8 21 59 FC D5 01 0B 00 C5 D5 E5 CD;
0360: 82 02 F1 F1 F1 D1 21 08 00 19 EB 21 20 FA 01 03 00 C5 D5 E5 CD 82 02 F1;
0378: F1 F1 C9 21 02 00 39 3A 02 F8 86 5F 3A 03 F8 23 8E 57 D5 CD D9 02 F1 EB;
0390: 7A B3 28 20 6B 62 01 0B 00 09 CB 66 28 16 D5 CD 4C 1D F1 21 00 00 22 02;
03A8: F8 FD 21 00 F8 FD 36 00 00 2E 01 C9 21 00 00 C9 21 F2 FF 39 F9 01 00 00;
03C0: 11 00 00 21 02 F8 79 96 78 23 9E E2 D0 03 EE 80 F2 FE 03 FD 21 0C 00 FD;
03D8: 39 FD 73 00 FD 72 01 21 57 FA FD 7E 00 96 FD 7E 01 23 9E 30 11 C5 D5 D5;
03F0: CD AE 16 F1 D1 C1 7C B5 28 01 03 13 18 C5 01 00 00 FD 21 02 00 FD 39 FD;
0408: 73 00 FD 72 01 69 60 29 09 29 09 29 09 29 FD 21 0C 00 FD 39 FD 75 00 FD;
0420: 74 01 79 D6 12 78 17 3F 1F DE 80 D2 F8 05 FD 21 02 00 FD 39 FD 56 00 FD;
0438: 5E 01 21 57 FA 7A 96 7B 23 9E D2 F8 05 C5 FD 6E 00 FD 66 01 E5 CD AE 16;
0450: F1 C1 33 33 E5 3E 04 21 0C 00 39 FD 21 0A 00 FD 39 86 FD 77 00 3E F8 23;
0468: 8E FD 23 FD 77 00 21 01 00 39 7E 2B B6 CA DC 05 E1 E5 11 0B 00 19 56 03;
0480: FD 21 08 00 FD 39 FD 71 00 FD 70 01 CB 62 CA 16 05 21 0A 00 39 7E 23 66;
0498: 6F 36 3C 3E 04 21 0C 00 39 86 5F 3E F8 23 8E 57 6B 62 23 36 44 6B 62 23;
04B0: 23 36 49 6B 62 23 23 23 36 52 21 04 00 19 36 3E 21 05 00 19 36 20 21 59;
04C8: FC 46 21 06 00 19 FD 21 06 00 FD 39 FD 75 00 FD 74 01 78 B7 28 17 21 1C;
04E0: 00 E5 21 59 FC E5 FD 6E 00 FD 66 01 E5 CD 82 02 F1 F1 F1 18 17 21 0B 00;
04F8: 4D 44 E1 E5 C5 E5 21 0A 00 39 4E 23 46 C5 CD 82 02 F1 F1 F1 21 08 00 39;
0510: 4E 23 46 C3 E6 05 3A 59 FC FD 21 06 00 FD 39 FD 77 00 21 0A 00 39 7E FD;
0528: 21 04 00 FD 39 FD 77 00 21 0B 00 39 7E FD 21 04 00 FD 39 FD 77 01 21 06;
0540: 00 39 7E B7 28 18 21 59 FC 01 1C 00 C5 E5 21 08 00 39 4E 23 46 C5 CD 82;
0558: 02 F1 F1 F1 18 75 21 08 00 4D 44 E1 E5 C5 E5 21 08 00 39 4E 23 46 C5 CD;
0570: 82 02 F1 F1 F1 21 04 00 39 FD 21 0A 00 FD 39 FD 7E 00 C6 08 77 FD 7E 01;
0588: CE 00 23 77 21 04 00 39 7E 23 66 6F 01 01 00 C5 01 1E 06 C5 E5 CD 82 02;
05A0: F1 F1 F1 FD 21 00 00 FD 39 FD 7E 00 C6 08 4F FD 7E 01 CE 00 47 FD 21 0A;
05B8: 00 FD 39 FD 7E 00 C6 09 5F FD 7E 01 CE 00 57 21 03 00 E5 C5 D5 CD 82 02;
05D0: F1 F1 F1 21 08 00 39 4E 23 46 18 0A 21 0A 00 39 7E 23 66 6F 36 00 FD 21;
05E8: 02 00 FD 39 FD 34 00 C2 0D 04 FD 34 01 C3 0D 04 21 0C 00 39 5E 23 56 79;
0600: D6 12 78 17 3F 1F DE 80 30 0E 21 04 F8 19 36 00 21 1E 00 19 EB 03 18 E7;
0618: 21 0E 00 39 F9 C9 2E 00 21 00 F8 36 00 CD 61 22 21 02 0F E5 3E 01 F5 33;
0630: CD ED 21 33 21 91 06 E3 CD 50 24 F1 AF F5 33 CD 56 22 33 21 B2 06 E5 CD;
0648: 50 24 21 D3 06 E3 CD 50 24 F1 CD B8 03 16 00 01 00 00 7A C6 04 C5 D5 57;
0660: 1E 03 D5 CD A3 22 F1 D1 C1 21 04 F8 09 C5 D5 E5 CD 50 24 F1 D1 C1 21 F4;
0678: 06 C5 D5 E5 CD 50 24 F1 D1 C1 21 1E 00 09 4D 44 14 7A D6 12 38 CC C3 34;
0690: 01 20 20 20 20 20 20 20 20 20 20 20 53 44 20 4C 4F 41 44 45 52 20 20 20;
06A8: 20 20 20 20 20 20 20 20 20 00 20 20 55 70 2F 44 6F 77 6E 20 2D 20 53 65;
06C0: 6C 65 63 74 20 4C 2F 52 20 2D 20 50 61 67 65 20 20 20 00 20 20 20 20 20;
06D8: 41 63 74 69 6F 6E 20 42 75 74 74 6F 6E 20 74 6F 20 6C 6F 61 64 20 20 20;
06F0: 20 20 20 00 20 00 21 E8 FF 39 F9 21 10 00 39 36;
0700: 00 23 36 80 CD B0 1E 3E 00 01 3B 24 ED 79 CD 17 0B 7D B7 20 0A 21 7F 0A;
0718: E5 CD 03 01 F1 18 FE CD E2 0C 7C B5 20 0A 21 9B 0A E5 CD 03 01 F1 18 FE;
0730: 21 00 00 39 FD 21 16 00 FD 39 FD 75 00 FD 74 01 21 01 F8 36 00 21 00 00;
0748: 22 02 F8 CD 20 06 CD 68 01 3A 01 F8 D6 08 20 1C CD 4E 01 AF FD 21 00 F8;
0760: FD 96 00 E2 68 07 EE 80 F2 6F 07 21 00 F8 35 CD 34 01 18 DA 3A 01 F8 D6;
0778: 04 20 5B CD 4E 01 3A 00 F8 FD 21 14 00 FD 39 FD 77 00 3A 00 F8 17 9F FD;
0790: 21 14 00 FD 39 FD 77 01 FD 34 00 20 03 FD 34 01 FD 4E 00 FD 46 01 69 60;
07A8: 29 09 29 09 29 09 29 FD 75 00 FD 74 01 3E 04 21 14 00 39 86 77 3E F8 23;
07C0: 8E 77 FD 6E 00 FD 66 01 7E B7 28 04 21 00 F8 34 CD 34 01 C3 4E 07 3A 01;
07D8: F8 D6 02 20 29 AF FD 21 02 F8 FD BE 00 FD 21 02 F8 FD 9E 01 E2 F1 07 EE;
07F0: 80 F2 4E 07 21 02 F8 7E C6 EE 77 23 7E CE FF 77 CD 20 06 C3 4E 07 3A 01;
0808: F8 3D 20 12 21 02 F8 7E C6 12 77 23 7E CE 00 77 CD 20 06 C3 4E 07 3A 01;
0820: F8 D6 10 C2 4E 07 FD 21 00 F8 FD 6E 00 3A 00 F8 17 9F 67 E5 CD 7B 03 F1;
0838: 2D 20 05 7C B7 CA 4B 07 FD 21 00 F8 FD 6E 00 3A 00 F8 17 9F 67 E5 CD 3D;
0850: 03 F1 CD 61 22 21 00 0C E5 CD A3 22 21 B5 0A E3 CD 50 24 F1 21 16 00 39;
0868: 7E 23 66 6F 01 59 FC C5 E5 CD C9 17 F1 F1 7C B5 20 0B 21 D6 0A E5 CD 03;
0880: 01 F1 C3 40 07 21 16 00 39 7E 23 66 6F 11 04 00 19 5E 23 56 23 4E 23 46;
0898: 3E 09 CB 38 CB 19 CB 1A CB 1B 3D 20 F5 FD 21 0C 00 FD 39 FD 73 00 FD 36;
08B0: 01 00 FD 7E 00 D6 04 20 0F FD 7E 01 B7 20 09 21 10 00 39 36 00 23 36 98;
08C8: FD 21 0C 00 FD 39 FD 7E 00 D6 08 20 13 FD 7E 01 B7 20 0D 21 10 00 39 7E;
08E0: C6 00 77 23 7E CE 10 77 21 16 00 39 7E FD 21 14 00 FD 39 FD 77 00 21 17;
08F8: 00 39 7E FD 21 14 00 FD 39 FD 77 01 21 0E 00 39 AF 77 23 77 21 10 00 39;
0910: 7E FD 21 16 00 FD 39 FD 77 00 21 11 00 39 7E FD 21 16 00 FD 39 FD 77 01;
0928: 21 0C 00 39 FD 21 0E 00 FD 39 FD 7E 00 96 FD 7E 01 23 9E E2 40 09 EE 80;
0940: F2 9A 09 21 14 00 39 7E 23 66 6F FD 21 16 00 FD 39 FD 4E 00 FD 46 01 C5;
0958: E5 CD A1 1B F1 F1 FD 21 12 00 FD 39 FD 74 01 FD 75 00 21 13 00 39 7E 2B;
0970: B6 20 0A 21 F6 0A E5 CD 03 01 F1 18 AB FD 21 0E 00 FD 39 FD 34 00 20 03;
0988: FD 34 01 21 16 00 39 7E C6 00 77 23 7E CE 02 77 18 8E 3E FF D3 E7 3E 04;
09A0: D3 FE 21 20 FA 7E FD 21 12 00 FD 39 FD 77 00 FD 7E 00 D6 46 20 04 3E 01;
09B8: 18 01 AF 5F 23 4D 44 7B B7 28 11 0A D6 34 20 0C 3A 22 FA D6 53 20 05 3E;
09D0: 16 C3 70 0A 7B B7 28 0A 0A D6 34 20 05 3E 06 C3 70 0A 7B B7 28 11 0A D6;
09E8: 36 20 0C 3A 22 FA D6 53 20 05 3E 12 C3 70 0A 7B B7 28 0A 0A D6 36 20 05;
0A00: 3E 02 C3 70 0A 7B B7 28 10 0A D6 38 20 0B 3A 22 FA D6 53 20 04 3E 11 18;
0A18: 57 7B B7 28 09 0A D6 38 20 04 3E 01 18 4A 7B B7 28 09 0A D6 45 20 04 3E;
0A30: 03 18 3D 21 12 00 39 7E D6 45 20 09 0A D6 30 20 04 3E 04 18 2B 21 12 00;
0A48: 39 7E D6 33 20 09 0A D6 46 20 04 3E 05 18 19 FD 21 0C 00 FD 39 FD 7E 00;
0A60: D6 10 20 0A FD 7E 01 B7 20 04 3E 01 18 02 3E 00 CB FF 01 3B 24 ED 79 18;
0A78: FE 21 18 00 39 F9 C9 45 72 72 6F 72 20 69 6E 69 74 69 61 6C 69 7A 69 6E;
0A90: 67 20 53 44 20 63 61 72 64 21 00 20 20 45 72 72 6F 72 20 6D 6F 75 6E 74;
0AA8: 69 6E 67 20 53 44 20 63 61 72 64 21 00 20 20 20 20 20 20 20 20 20 20 4C;
0AC0: 6F 61 64 69 6E 67 2E 2E 2E 20 20 20 20 20 20 20 20 20 20 20 20 00 20 20;
0AD8: 20 20 45 72 72 6F 72 20 6F 70 65 6E 69 6E 67 20 74 68 65 20 66 69 6C 65;
0AF0: 20 20 20 20 20 00 20 20 20 20 20 45 72 72 6F 72 20 72 65 61 64 69 6E 67;
0B08: 20 74 68 65 20 66 69 6C 65 20 20 20 20 20 00 3E FF D3 E7 06 0A 3E FF D3;
0B20: EB 10 FA 3E FE D3 E7 06 10 3E 40 11 00 00 C5 CD FF 0B C1 D2 3F 0B 10 F1;
0B38: 2E 00 3E FF D3 E7 C9 3E 48 11 AA 01 CD 0C 0C 21 E3 0B 38 03 21 F1 0B 01;
0B50: 78 00 C5 CD 66 0B C1 D2 67 0B 10 F6 0D 20 F3 2E 00 3E FF D3 E7 C9 E9 3E;
0B68: 7A 11 00 00 CD 0C 0C DA 5F 0B 78 E6 40 32 2A FA CC 8A 0B 3E FF D3 E7 3A;
0B80: 2A FA 2E 03 FE 40 C8 2E 02 C9 3E 50 01 00 00 11 00 02 C3 EA 0B FD 21 00;
0B98: 00 FD 39 FD 5E 02 FD 56 03 FD 4E 04 FD 46 05 FD 6E 06 FD 66 07 3E FE D3;
0BB0: E7 3A 2A FA B7 CC D7 0B 3E 51 CD EA 0B 30 03 2E 00 C9 CD 4C 0C 38 F8 01;
0BC8: EB 00 ED B2 ED B2 00 DB EB 00 DB EB 2E 01 C9 41 4A 53 1E 00 CB 22 CB 11;
0BE0: CB 10 C9 3E 41 01 00 00 50 59 CD 25 0C B7 C8 37 C9 3E 77 CD E5 0B 3E 69;
0BF8: 01 00 40 51 59 18 EB 01 00 00 CD 25 0C 47 E6 FE 78 20 E4 C9 CD FF 0B D8;
0C10: F5 CD 5A 0C 67 CD 5A 0C 6F CD 5A 0C 57 CD 5A 0C 5F 44 4D F1 C9 D3 EB F5;
0C28: 78 00 D3 EB 79 00 D3 EB 7A 00 D3 EB 7B 00 D3 EB F1 FE 40 06 95 28 08 FE;
0C40: 48 06 87 28 02 06 FF 78 D3 EB 18 0E 06 0A C5 CD 5A 0C C1 FE FE C8 10 F6;
0C58: 37 C9 01 64 00 DB EB FE FF C0 10 F9 0D 20 F6 C9 F5 F5 21 06 00 39 5E 23;
0C70: 56 21 08 00 39 7E FD 21 02 00 FD 39 FD 77 00 21 09 00 39 7E FD 21 02 00;
0C88: FD 39 FD 77 01 01 00 00 21 0A 00 39 79 96 78 23 9E E2 9E 0C EE 80 F2 DC;
0CA0: 0C 1A FD 21 01 00 FD 39 FD 77 00 13 FD 21 02 00 FD 39 FD 6E 00 FD 66 01;
0CB8: 7E 33 F5 33 FD 34 00 20 03 FD 34 01 21 01 00 39 7E FD 21 00 00 FD 39 FD;
0CD0: 96 00 28 05 21 01 00 18 06 03 18 B4 21 00 00 F1 F1 C9 21 EA FF 39 F9 21;
0CE8: 00 00 22 2F FA 21 02 00 39 36 05 23 36 00 FD 21 02 00 FD 39 FD 6E 00 FD;
0D00: 66 01 2B FD 75 00 FD 74 01 AF FD BE 00 FD 9E 01 E2 15 0D EE 80 F2 39 0D;
0D18: 21 59 FA E5 21 00 00 E5 21 00 00 E5 CD 95 0B F1 F1 F1 7D B7 28 C8 21 02;
0D30: 00 39 36 FF 23 36 FF 18 BD 21 03 00 39 7E 2B B6 20 06 21 00 00 C3 EB 15;
0D48: AF FD 21 12 00 FD 39 FD 77 00 FD 77 01 FD 77 02 FD 77 03 21 01 00 22 55;
0D60: FA FD 21 10 00 FD 39 FD 36 00 8F FD 36 01 FA 2E 08 E5 21 F4 15 E5 FD 6E;
0D78: 00 FD 66 01 E5 CD 68 0C F1 F1 F1 7C B5 20 06 21 00 00 22 55 FA 21 AB FA;
0D90: 01 08 00 C5 01 FD 15 C5 E5 CD 68 0C F1 F1 F1 7C B5 20 06 21 00 00 22 55;
0DA8: FA 3A 56 FA 21 55 FA B6 CA B5 0E FD 21 10 00 FD 39 FD 36 00 59 FD 36 01;
0DC0: FA FD 7E 00 FD 21 00 00 FD 39 FD 77 00 21 11 00 39 7E FD 21 00 00 FD 39;
0DD8: FD 77 01 FD 7E 00 FD 21 10 00 FD 39 FD 77 00 21 01 00 39 7E FD 21 10 00;
0DF0: FD 39 FD 77 01 FD 6E 00 FD 66 01 11 C6 01 19 7E;
0E00: FD 21 04 00 FD 39 FD 77 00 23 7E FD 77 01 23 7E FD 77 02 23 7E FD 77 03;
0E18: 21 12 00 39 EB 21 04 00 39 01 04 00 ED B0 21 00 00 39 7E FD 21 10 00 FD;
0E30: 39 FD 77 00 21 01 00 39 7E FD 21 10 00 FD 39 FD 77 01 FD 6E 00 FD 66 01;
0E48: 11 FE 01 19 7E FD 77 00 23 7E FD 77 01 FD 7E 00 D6 AA 20 17 FD 7E 01 D6;
0E60: 55 20 10 21 12 00 39 EB 21 04 00 39 01 04 00 ED B0 18 1A FD 21 10 00 FD;
0E78: 39 FD 7E 00 D6 55 20 07 FD 7E 01 D6 AA 28 06 21 00 00 C3 EB 15 21 59 FA;
0E90: E5 FD 21 14 00 FD 39 FD 6E 02 FD 66 03 E5 FD 6E 00 FD 66 01 E5 CD 95 0B;
0EA8: F1 F1 F1 7D B7 20 06 21 00 00 C3 EB 15 21 08 00 E5 21 FD 15 E5 21 AB FA;
0EC0: E5 CD 68 0C F1 F1 F1 7C B5 20 08 21 01 00 22 2F FA 18 1C 21 08 00 E5 21;
0ED8: F4 15 E5 21 8F FA E5 CD 68 0C F1 F1 F1 7C B5 28 06 21 00 00 C3 EB 15 3A;
0EF0: 57 FC D6 55 20 07 3A 58 FC D6 AA 28 06 21 00 00 C3 EB 15 3A 59 FA FE E9;
0F08: 28 0A D6 EB 28 06 21 00 00 C3 EB 15 3A 64 FA B7 20 07 3A 65 FA D6 02 28;
0F20: 06 21 00 00 C3 EB 15 3A 66 FA 32 47 FA 21 48 FA 36 00 21 47 FA 5E 21 48;
0F38: FA 56 1B 21 49 FA 73 21 4A FA 72 21 4B FA 36 00 21 4C FA 36 00 3A 67 FA;
0F50: FD 21 10 00 FD 39 FD 77 00 FD 7E 00 FD 21 0C 00 FD 39 FD 77 00 FD 36 01;
0F68: 00 FD 36 02 00 FD 36 03 00 21 0C 00 39 FD 21 12 00 FD 39 FD 7E 00 86 77;
0F80: FD 7E 01 23 8E 77 FD 7E 02 23 8E 77 FD 7E 03 23 8E 77 3A 68 FA FD 21 10;
0F98: 00 FD 39 FD 77 00 FD 7E 00 FD 77 00 FD 36 01 00 FD 7E 00 FD 77 01 FD 36;
0FB0: 00 00 FD 7E 00 FD 21 12 00 FD 39 FD 77 00 21 11 00 39 7E FD 21 12 00 FD;
0FC8: 39 FD 77 01 21 11 00 39 7E 17 9F FD 21 12 00 FD 39 FD 77 02 FD 77 03 21;
0FE0: 12 00 39 D5 11 31 FA FD 21 0E 00 FD 39 FD 7E 00 86 12 FD 7E 01 23 8E 13;
0FF8: 12 FD 7E 02 23 8E 13 12 FD 7E 03 23 8E 13 12 D1 3A 69 FA FD 77 00 FD 7E;
1010: 00 32 45 FA 21 46 FA 36 00 3A 30 FA 21 2F FA B6 CA 2A 14 FD 21 0C 00 FD;
1028: 39 FD 36 00 AB FD 36 01 FA FD 7E 00 FD 77 00 FD 7E 01 FD 77 01 21 08 00;
1040: E5 21 FD 15 E5 FD 6E 00 FD 66 01 E5 CD 68 0C F1 F1 F1 7C B5 28 06 21 00;
1058: 00 C3 EB 15 3A 47 FA 32 57 FA 3A 48 FA 32 58 FA 3E 05 18 10 FD 21 57 FA;
1070: FD CB 00 26 FD 21 57 FA FD CB 01 16 3D 20 ED 3A 47 FA FD 21 0C 00 FD 39;
1088: FD 77 00 3A 48 FA FD 21 0C 00 FD 39 FD 77 01 FD 36 02 00 FD 36 03 00 11;
10A0: 41 FA 21 0C 00 39 01 04 00 ED B0 3A 7D FA FD 21 10 00 FD 39 FD 77 00 3A;
10B8: 7E FA FD 21 12 00 FD 39 FD 77 00 FD 7E 00 FD 77 00 FD 36 01 00 FD 36 02;
10D0: 00 FD 36 03 00 F5 F1 06 08 FD CB 00 26 FD CB 01 16 FD CB 02 16 FD CB 03;
10E8: 16 10 EE 21 10 00 39 7E FD 21 08 00 FD 39 FD 77 00 FD 36 01 00 FD 36 02;
1100: 00 FD 36 03 00 21 12 00 39 D5 FD E5 D1 1A 86 12 13 1A 23 8E 12 13 1A 23;
1118: 8E 12 13 1A 23 8E 12 D1 3A 7F FA FD 21 10 00 FD 39 FD 77 00 FD 7E 00 FD;
1130: 21 12 00 FD 39 FD 77 00 FD 36 01 00 FD 36 02 00 FD 36 03 00 F5 F1 06 10;
1148: FD CB 00 26 FD CB 01 16 FD CB 02 16 FD CB 03 16 10 EE 21 12 00 39 D5 FD;
1160: 21 0A 00 FD 39 FD E5 D1 1A 86 12 13 1A 23 8E 12 13 1A 23 8E 12 13 1A 23;
1178: 8E 12 D1 3A 80 FA FD 21 10 00 FD 39 FD 77 00 FD 7E 00 FD 21 12 00 FD 39;
1190: FD 77 00 FD 36 01 00 FD 36 02 00 FD 36 03 00 F5 F1 06 18 FD CB 00 26 FD;
11A8: CB 01 16 FD CB 02 16 FD CB 03 16 10 EE 21 12 00 39 D5 11 4D FA FD 21 0A;
11C0: 00 FD 39 FD 7E 00 86 12 FD 7E 01 23 8E 13 12 FD 7E 02 23 8E 13 12 FD 7E;
11D8: 03 23 8E 13 12 D1 3A 45 FA FD 21 08 00 FD 39 FD 77 00 3A 46 FA FD 21 08;
11F0: 00 FD 39 FD 77 01 FD 36 02 00 FD 36 03 00 2A 4F FA E5 2A 4D FA E5 FD 6E;
1208: 02 FD 66 03 E5 FD 6E 00 FD 66 01 E5 CD 7F 24 F1 F1 F1 F1 FD 21 08 00 FD;
1220: 39 FD 72 03 FD 73 02 FD 74 01 FD 75 00 21 08 00 39 D5 FD 21 35 FA FD E5;
1238: D1 3A 31 FA 86 12 3A 32 FA 23 8E 13 12 3A 33 FA 23 8E 13 12 3A 34 FA 23;
1250: 8E 13 12 D1 3A 85 FA FD 21 08 00 FD 39 FD 77 00 3A 86 FA FD 21 10 00 FD;
1268: 39 FD 77 00 FD 7E 00 FD 21 12 00 FD 39 FD 77 00 FD 36 01 00 FD 36 02 00;
1280: FD 36 03 00 F5 F1 06 08 FD CB 00 26 FD CB 01 16 FD CB 02 16 FD CB 03 16;
1298: 10 EE FD 21 08 00 FD 39 FD 7E 00 FD 77 00 FD 36 01 00 FD 36 02 00 FD 36;
12B0: 03 00 21 12 00 39 D5 FD E5 D1 1A 86 12 13 1A 23 8E 12 13 1A 23 8E 12 13;
12C8: 1A 23 8E 12 D1 3A 87 FA FD 21 10 00 FD 39 FD 77 00 FD 7E 00 FD 21 12 00;
12E0: FD 39 FD 77 00 FD 36 01 00 FD 36 02 00 FD 36 03 00 F5 F1 06 10 FD CB 00;
12F8: 26 FD CB 01 16 FD CB 02 16 FD CB 03 16 10 EE 21 12 00 39 D5 FD 21 0A 00;
1310: FD 39 FD E5 D1 1A 86 12 13 1A 23 8E 12 13 1A 23 8E 12 13 1A 23 8E 12 D1;
1328: 3A 88 FA FD 21 10 00 FD 39 FD 77 00 FD 7E 00 FD 21 12 00 FD 39 FD 77 00;
1340: FD 36 01 00 FD 36 02 00 FD 36 03 00 FD 7E 00 E6 0F FD 77 00 FD 36 01 00;
1358: FD 36 02 00 FD 36 03 00 F5 F1 06 18 FD CB 00 26 FD CB 01 16 FD CB 02 16;
1370: FD CB 03 16 10 EE 21 12 00 39 D5 11 39 FA FD 21 0A 00 FD 39 FD 7E 00 86;
1388: 12 FD 7E 01 23 8E 13 12 FD 7E 02 23 8E 13 12 FD 7E 03 23 8E 13 12 D1 21;
13A0: 08 00 39 3A 39 FA C6 FE 77 3A 3A FA CE FF 23 77 3A 3B FA CE FF 23 77 3A;
13B8: 3C FA CE FF 23 77 FD 21 0C 00 FD 39 FD 6E 02 FD 66 03 E5 FD 6E 00 FD 66;
13D0: 01 E5 FD 21 0C 00 FD 39 FD 6E 02 FD 66 03 E5 FD 6E 00 FD 66 01 E5 CD 7F;
13E8: 24 F1 F1 F1 F1 FD 21 08 00 FD 39 FD 72 03 FD 73 02 FD 74 01 FD 75 00 21;
1400: 35 FA D5 11 3D FA FD 21 0A 00 FD 39 FD 7E 00 86 12 FD 7E 01 23 8E 13 12;
1418: FD 7E 02 23 8E 13 12 FD 7E 03 23 8E 13 12 D1 C3 E0 15 3A 6A FA FD 21 08;
1430: 00 FD 39 FD 77 00 FD 36 01 00 3A 6B FA FD 21 0C 00 FD 39 FD 77 00 FD 7E;
1448: 00 FD 77 00 FD 36 01 00 FD 7E 00 FD 77 01 FD 36 00 00 21 0C 00 39 D5 11;
1460: 57 FA FD 21 0A 00 FD 39 FD 7E 00 86 12 FD 7E 01 23 8E 13 12 D1 3A 57 FA;
1478: FD 21 08 00 FD 39 FD 77 00 3A 58 FA FD 21 08 00 FD 39 FD 77 01 3E 06 18;
1490: 08 FD CB 00 26 FD CB 01 16 3D 20 F5 21 08 00 39 FD 7E 00 C6 FF 77 FD 7E;
14A8: 01 CE 01 23 77 FD 7E 01 CB 3F FD 77 00 FD 36 01 00 FD 7E 00 32 41 FA 21;
14C0: 09 00 39 7E 32 42 FA 21 43 FA 36 00 21 44 FA 36 00 3A 6F FA FD 21 08 00;
14D8: FD 39 FD 77 00 FD 36 01 00 3A 70 FA FD 21 0C 00 FD 39 FD 77 00 FD 7E 00;
14F0: FD 77 00 FD 36 01 00 FD 7E 00 FD 77 01 FD 36 00;
1500: 00 21 0C 00 39 D5 FD 21 0A 00 FD 39 FD E5 D1 FD 7E 00 86 12 FD 7E 01 23;
1518: 8E 13 12 D1 FD 7E 00 32 4D FA 21 09 00 39 7E 32 4E FA 21 09 00 39 7E 17;
1530: 9F 32 4F FA 32 50 FA 3A 45 FA FD 21 08 00 FD 39 FD 77 00 3A 46 FA FD 21;
1548: 08 00 FD 39 FD 77 01 FD 36 02 00 FD 36 03 00 2A 4F FA E5 2A 4D FA E5 FD;
1560: 6E 02 FD 66 03 E5 FD 6E 00 FD 66 01 E5 CD 7F 24 F1 F1 F1 F1 FD 21 08 00;
1578: FD 39 FD 72 03 FD 73 02 FD 74 01 FD 75 00 21 08 00 39 D5 FD 21 3D FA FD;
1590: E5 D1 3A 31 FA 86 12 3A 32 FA 23 8E 13 12 3A 33 FA 23 8E 13 12 3A 34 FA;
15A8: 23 8E 13 12 D1 AF 32 39 FA 32 3A FA 32 3B FA 32 3C FA 21 41 FA D5 FD 21;
15C0: 35 FA FD E5 D1 3A 3D FA 86 12 3A 3E FA 23 8E 13 12 3A 3F FA 23 8E 13 12;
15D8: 3A 40 FA 23 8E 13 12 D1 21 00 00 E5 CD 4C 1D F1 21 01 00 FD 21 16 00 FD;
15F0: 39 FD F9 C9 46 41 54 31 36 20 20 20 00 46 41 54 33 32 20 20 20 00 F5 3A;
1608: 30 FA 21 2F FA B6 28 28 FD 21 04 00 FD 39 FD 5E 00 FD 56 01 06 07 CB 2A;
1620: CB 1B 10 FA FD 7E 00 E6 7F FD 21 00 00 FD 39 FD 77 00 FD 36 01 00 18 1E;
1638: FD 21 04 00 FD 39 FD 5E 01 7B CB 07 9F 57 FD 7E 00 FD 21 00 00 FD 39 FD;
1650: 77 00 FD 36 01 00 7A 17 9F 4F 47 3A 31 FA 83 5F 3A 32 FA 8A 57 3A 33 FA;
1668: 89 4F 3A 34 FA 88 47 21 59 FA E5 C5 D5 CD 95 0B F1 F1 F1 7D B7 20 05 21;
1680: 00 00 18 28 3A 30 FA 21 2F FA B6 28 13 11 59 FA E1 E5 29 29 19 4E 23 46;
1698: 23 5E 23 7E E6 0F 18 0A 11 59 FA E1 E5 29 19 4E 23 46 69 60 F1 C9 F5 F5;
16B0: FD 21 06 00 FD 39 FD 5E 00 FD 56 01 06 04 CB 2A CB 1B 10 FA 2A 53 FA 19;
16C8: EB 01 00 00 FD 7E 00 E6 0F FD 21 02 00 FD 39 FD 77 00 FD 36 01 00 FD 7E;
16E0: 01 FD B6 00 20 0C 21 59 FA E5 C5 D5 CD 95 0B F1 F1 F1 C1 E1 E5 C5 29 29;
16F8: 29 29 29 11 59 FA 19 33 33 E5 E1 E5 56 7A B7 CA C3 17 7A D6 E5 CA C3 17;
1710: E1 E5 01 0B 00 09 7E CB 5F 20 19 3A 5E FD 21 5D FD B6 20 05 21 59 FC 36;
1728: 00 21 00 00 22 5D FD E1 E5 C3 C6 17 D6 0F C2 C3 17 7A E6 1F 5F 16 00 1B;
1740: 6B 62 29 19 29 29 19 EB 21 59 FC 19 EB E1 E5 23 7E 12 13 E1 E5 23 23 23;
1758: 7E 12 13 E1 E5 01 05 00 09 7E 12 13 E1 E5 01 07 00 09 7E 12 13 E1 E5 01;
1770: 09 00 09 7E 12 13 E1 E5 01 0E 00 09 7E 12 13 E1 E5 01 10 00 09 7E 12 13;
1788: E1 E5 01 12 00 09 7E 12 13 E1 E5 01 14 00 09 7E 12 13 E1 E5 01 16 00 09;
17A0: 7E 12 13 E1 E5 01 18 00 09 7E 12 13 E1 E5 01 1C 00 09 7E 12 13 E1 E5 01;
17B8: 1E 00 09 7E 12 21 01 00 22 5D FD 21 00 00 F1 F1 C9 21 E6 FF 39 F9 21 08;
17D0: 00 39 AF 77 23 77 3A 51 FA FD 21 04 00 FD 39 FD 77 00 3A 52 FA FD 21 04;
17E8: 00 FD 39 FD 77 01 FD 36 02 00 FD 36 03 00 21 53 FA 4E 21 54 FA 46 11 00;
1800: 00 FD 21 16 00 FD 39 FD 71 00 FD 70 01 FD 73 02 FD 72 03 AF FD 21 00 00;
1818: FD 39 FD 77 00 FD 77 01 FD 77 02 FD 77 03 21 57 FA 56 21 58 FA 5E 01 00;
1830: 00 FD 21 00 00 FD 39 FD 7E 00 92 FD 7E 01 9B FD 7E 02 98 FD 7E 03 99 D2;
1848: 44 1A FD 7E 00 E6 0F 20 3B FD 21 16 00 FD 39 FD 5E 00 FD 56 01 FD 4E 02;
1860: FD 46 03 FD 34 00 20 0D FD 34 01 20 08 FD 34 02 20 03 FD 34 03 21 59 FA;
1878: E5 C5 D5 CD 95 0B F1 F1 F1 21 08 00 39 36 59 23 36 FA 18 0D 21 08 00 39;
1890: 7E C6 20 77 23 7E CE 00 77 FD 21 08 00 FD 39 FD 6E 00 FD 66 01 7E B7 CA;
18A8: 26 1A D6 E5 CA 26 1A FD 6E 00 FD 66 01 11 0B 00 19 7E E6 18 C2 26 1A 21;
18C0: 08 00 39 7E 23 66 6F 01 0B 00 C5 FD 21 20 00 FD 39 FD 4E 00 FD 46 01 C5;
18D8: E5 CD 68 0C F1 F1 F1 7C B5 C2 26 1A 21 1C 00 39 7E FD 21 14 00 FD 39 FD;
18F0: 77 00 21 1D 00 39 7E FD 21 14 00 FD 39 FD 77 01 21 12 00 39 FD 7E 00 C6;
1908: 04 77 FD 7E 01 CE 00 23 77 21 08 00 39 7E 23 66 6F 11 1C 00 19 5E 23 56;
1920: 23 46 23 4E 21 12 00 39 7E 23 66 6F 73 23 72 23 70 23 71 21 12 00 39 FD;
1938: 21 14 00 FD 39 FD 7E 00 C6 08 77 FD 7E 01 CE 00 23 77 FD 21 08 00 FD 39;
1950: FD 6E 00 FD 66 01 11 1A 00 19 5E 23 56 01 00 00 FD 21 12 00 FD 39 FD 6E;
1968: 00 FD 66 01 73 23 72 23 70 23 71 FD 5E 00 FD 56 01 21 0E 00 39 EB 01 04;
1980: 00 ED B0 3A 30 FA 21 2F FA B6 28 40 21 08 00 39 7E 23 66 6F 11 14 00 19;
1998: 5E 23 7E E6 0F 57 21 00 00 F5 FD 21 0C 00 FD 39 FD 73 00 FD 72 01 FD 74;
19B0: 02 FD 75 03 F1 3E 10 FD CB 00 26 FD CB 01 16 FD CB 02 16 FD CB 03 16 3D;
19C8: 20 ED 18 13 AF FD 21 0A 00 FD 39 FD 77 00 FD 77 01 FD 77 02 FD 77 03 21;
19E0: 0A 00 39 FD 21 0E 00 FD 39 FD 7E 00 86 57 FD 7E 01 23 8E 5F FD 7E 02 23;
19F8: 8E 47 FD 7E 03 23 8E 4F 21 12 00 39 7E 23 66 6F 72 23 73 23 70 23 71 21;
1A10: 14 00 39 7E 23 66 6F AF 77 23 77 23 AF 77 23 77 21 01 00 C3 F4 1A FD 21;
1A28: 00 00 FD 39 FD 34 00 C2 26 18 FD 34 01 C2 26 18 FD 34 02 C2 26 18 FD 34;
1A40: 03 C3 26 18 3A 30 FA 21 2F FA B6 CA F1 1A 21 04 00 39 4E 23 46 C5 CD 06;
1A58: 16 F1 FD 21 04 00 FD 39 FD 75 00 FD 74 01 7C 17 9F FD 77 02 FD 77 03 FD;
1A70: 7E 00 E6 F8 67 FD 56 01 FD 5E 02 FD 7E 03 E6 0F 6F 7C D6 F8 20 0B 14 20;
1A88: 08 1C 20 05 7D D6 0F 28 60 21 0A 00 39 FD 7E 00 C6 FE 77 FD 7E 01 CE FF;
1AA0: 23 77 FD 7E 02 CE FF 23 77 FD 7E 03 CE FF 23 77 21 47 FA 5E 21 48 FA 56;
1AB8: 01 00 00 FD 21 0A 00 FD 39 FD 6E 02 FD 66 03 E5 FD 6E 00 FD 66 01 E5 C5;
1AD0: D5 CD 7F 24 F1 F1 F1 F1 4D 44 3A 35 FA 81 4F 3A 36 FA 88 47 3A 37 FA 8B;
1AE8: 5F 3A 38 FA 8A 57 C3 01 18 21 00 00 FD 21 1A 00 FD 39 FD F9 C9 F5 F5 FD;
1B00: 21 06 00 FD 39 FD 5E 00 FD 56 01 D5 21 02 00 39 EB 01 04 00 ED B0 D1 FD;
1B18: 21 00 00 FD 39 FD 34 00 20 0D FD 34 01 20 08 FD 34 02 20 03 FD 34 03 D5;
1B30: 21 02 00 39 01 04 00 ED B0 D1 FD 7E 00 FD 21 49 FA FD A6 00 6F FD 21 00;
1B48: 00 FD 39 FD 7E 01 FD 21 49 FA FD A6 01 67 FD 21 00 00 FD 39 FD 7E 02 FD;
1B60: 21 49 FA FD A6 02 4F FD 21 00 00 FD 39 FD 7E 03 FD 21 49 FA FD A6 03 B1;
1B78: B4 B5 20 1F 21 08 00 19 E5 5E 23 56 23 4E 23 46 D5 CD 06 16 F1 EB E1 7A;
1B90: 17 9F 4F 47 73 23 72 23 71 23 70 21 01 00 F1 F1 C9 21 F0 FF 39 F9 21 0C;
1BA8: 00 39 EB 21 35 FA 01 04 00 ED B0 21 12 00 39 7E FD 21 0A 00 FD 39 FD 77;
1BC0: 00 21 13 00 39 7E FD 21 0A 00 FD 39 FD 77 01 21 08 00 39 FD 7E 00 C6 08;
1BD8: 77 FD 7E 01 CE 00 23 77 21 08 00 39 7E 23 66 6F 5E 23 56 23 4E 23 46 21;
1BF0: 04 00 39 7B C6 FE 77 7A CE FF 23 77 79 CE FF 23;
1C00: 77 78 CE FF 23 77 21 47 FA 5E 21 48 FA 56 01 00 00 FD 21 04 00 FD 39 FD;
1C18: 6E 02 FD 66 03 E5 FD 6E 00 FD 66 01 E5 C5 D5 CD 7F 24 F1 F1 F1 F1 4D 44;
1C30: FD 21 0C 00 FD 39 FD 7E 00 81 4F FD 7E 01 88 47 FD 7E 02 8B 5F FD 7E 03;
1C48: 8A 57 FD 21 00 00 FD 39 FD 71 00 FD 70 01 FD 73 02 FD 72 03 21 0A 00 39;
1C60: 7E 23 66 6F 5E 23 56 23 4E 23 46 7B FD 21 49 FA FD A6 00 5F 7A FD 21 49;
1C78: FA FD A6 01 57 79 FD 21 49 FA FD A6 02 4F 78 FD 21 49 FA FD A6 03 47 FD;
1C90: 21 00 00 FD 39 FD 7E 00 83 5F FD 7E 01 8A 57 FD 7E 02 89 4F FD 7E 03 88;
1CA8: 47 21 14 00 39 7E 23 66 6F E5 C5 D5 CD 95 0B F1 F1 F1 7D B7 20 06 21 00;
1CC0: 00 C3 43 1D FD 21 0A 00 FD 39 FD 6E 00 FD 66 01 5E 23 56 23 4E 23 46 1C;
1CD8: 20 07 14 20 04 0C 20 01 04 FD 6E 00 FD 66 01 73 23 72 23 71 23 70 7B FD;
1CF0: 21 49 FA FD A6 00 6F 7A FD 21 49 FA FD A6 01 67 79 FD 21 49 FA FD A6 02;
1D08: 5F 78 FD 21 49 FA FD A6 03 B3 B4 B5 20 2A 21 08 00 39 7E 23 66 6F 5E 23;
1D20: 56 23 4E 23 66 D5 CD 06 16 F1 5D 7C 57 17 9F 47 4F 21 08 00 39 7E 23 66;
1D38: 6F 73 23 72 23 70 23 71 21 01 00 FD 21 10 00 FD 39 FD F9 C9 F5 F5 FD 21;
1D50: 06 00 FD 39 FD 7E 01 FD B6 00 CA E5 1D FD 4E 00 FD 46 01 69 60 11 1A 00;
1D68: 19 7E FD 21 51 FA FD 77 00 23 7E 32 52 FA 3A 30 FA 21 2F FA B6 28 1E 69;
1D80: 60 11 14 00 19 4E 23 7E E6 0F 47 11 00 00 3E 10 CB 21 CB 10 CB 13 CB 12;
1D98: 3D 20 F5 18 06 01 00 00 11 00 00 3A 51 FA FD 21 00 00 FD 39 FD 77 00 3A;
1DB0: 52 FA FD 21 00 00 FD 39 FD 77 01 FD 36 02 00 FD 36 03 00 FD 7E 00 B1 67;
1DC8: FD 7E 01 B0 6F FD 7E 02 B3 5F FD 7E 03 B2 57 FD 21 51 FA FD 74 00 FD 21;
1DE0: 51 FA FD 75 01 3A 47 FA FD 21 00 00 FD 39 FD 77 00 3A 48 FA FD 21 00 00;
1DF8: FD 39 FD 77 01 3E 05 18 08 FD CB 00 26 FD CB 01 16 3D 20 F5 3A 52 FA 21;
1E10: 51 FA B6 28 40 21 51 FA 5E 21 52 FA 56 1B 1B D5 2A 47 FA E5 CD 63 24 F1;
1E28: F1 EB 01 00 00 3A 35 FA 83 5F 3A 36 FA 8A 57 3A 37 FA 89 3A 38 FA 88 21;
1E40: 53 FA 73 21 54 FA 72 11 57 FA 21 00 00 39 01 02 00 ED B0 18 54 2A 39 FA;
1E58: 22 51 FA 2A 3D FA 22 53 FA 3A 30 FA 21 2F FA B6 28 0A 21 00 00 39 7E 23;
1E70: 66 6F 18 27 F5 FD 21 41 FA FD 6E 00 FD 21 41 FA FD 66 01 FD 21 41 FA FD;
1E88: 5E 02 FD 21 41 FA FD 56 03 F1 06 04 29 CB 13 CB 12 10 F9 FD 21 57 FA FD;
1EA0: 75 00 FD 21 57 FA FD 74 01 F1 F1 C9 2A 2F FA C9 21 60 FD 36 00 21 5F FD;
1EB8: 36 00 21 63 FD 36 07 21 64 FD 36 00 21 61 FD 36 00 21 62 FD 36 00 3E 01;
1ED0: D3 FE 11 00 40 6B 62 36 00 13 7A D6 58 38 F6 11 00 58 6B 62 36 07 13 7A;
1EE8: D6 5B 38 F6 C9 00 00 00 00 00 00 00 00 00 10 10 10 10 00 10 00 00 24 24;
1F00: 00 00 00 00 00 00 24 7E 24 24 7E 24 00 00 08 3E 28 3E 0A 3E 08 00 62 64;
1F18: 08 10 26 46 00 00 10 28 10 2A 44 3A 00 00 08 10 00 00 00 00 00 00 04 08;
1F30: 08 08 08 04 00 00 20 10 10 10 10 20 00 00 00 14 08 3E 08 14 00 00 00 08;
1F48: 08 3E 08 08 00 00 00 00 00 00 08 08 10 00 00 00 00 3E 00 00 00 00 00 00;
1F60: 00 00 18 18 00 00 00 02 04 08 10 20 00 00 3C 46 4A 52 62 3C 00 00 18 28;
1F78: 08 08 08 3E 00 00 3C 42 02 3C 40 7E 00 00 3C 42 0C 02 42 3C 00 00 08 18;
1F90: 28 48 7E 08 00 00 7E 40 7C 02 42 3C 00 00 3C 40 7C 42 42 3C 00 00 7E 02;
1FA8: 04 08 10 10 00 00 3C 42 3C 42 42 3C 00 00 3C 42 42 3E 02 3C 00 00 00 00;
1FC0: 10 00 00 10 00 00 00 10 00 00 10 10 20 00 00 04 08 10 08 04 00 00 00 00;
1FD8: 3E 00 3E 00 00 00 00 20 10 08 10 20 00 00 3C 42 04 08 00 08 00 00 3C 4A;
1FF0: 56 5E 40 3C 00 00 3C 42 42 7E 42 42 00 00 7C 42 7C 42 42 7C 00 00 3C 42;
2008: 40 40 42 3C 00 00 78 44 42 42 44 78 00 00 7E 40 7C 40 40 7E 00 00 7E 40;
2020: 7C 40 40 40 00 00 3C 42 40 4E 42 3C 00 00 42 42 7E 42 42 42 00 00 3E 08;
2038: 08 08 08 3E 00 00 02 02 02 42 42 3C 00 00 44 48 70 48 44 42 00 00 40 40;
2050: 40 40 40 7E 00 00 42 66 5A 42 42 42 00 00 42 62 52 4A 46 42 00 00 3C 42;
2068: 42 42 42 3C 00 00 7C 42 42 7C 40 40 00 00 3C 42 42 52 4A 3C 00 00 7C 42;
2080: 42 7C 44 42 00 00 3C 40 3C 02 42 3C 00 00 FE 10 10 10 10 10 00 00 42 42;
2098: 42 42 42 3C 00 00 42 42 42 42 24 18 00 00 42 42 42 42 5A 24 00 00 42 24;
20B0: 18 18 24 42 00 00 82 44 28 10 10 10 00 00 7E 04 08 10 20 7E 00 00 0E 08;
20C8: 08 08 08 0E 00 00 00 40 20 10 08 04 00 00 70 10 10 10 10 70 00 00 10 38;
20E0: 54 10 10 10 00 00 00 00 00 00 00 00 FF 00 1C 22 78 20 20 7E 00 00 00 38;
20F8: 04 3C 44 3C 00 00 20 20 3C 22 22 3C 00 00 00 1C 20 20 20 1C 00 00 04 04;
2110: 3C 44 44 3C 00 00 00 38 44 78 40 3C 00 00 0C 10 18 10 10 10 00 00 00 3C;
2128: 44 44 3C 04 38 00 40 40 78 44 44 44 00 00 10 00 30 10 10 38 00 00 04 00;
2140: 04 04 04 24 18 00 20 28 30 30 28 24 00 00 10 10 10 10 10 0C 00 00 00 68;
2158: 54 54 54 54 00 00 00 78 44 44 44 44 00 00 00 38 44 44 44 38 00 00 00 78;
2170: 44 44 78 40 40 00 00 3C 44 44 3C 04 06 00 00 1C 20 20 20 20 00 00 00 38;
2188: 40 38 04 78 00 00 10 38 10 10 10 0C 00 00 00 44 44 44 44 38 00 00 00 44;
21A0: 44 28 28 10 00 00 00 44 54 54 54 28 00 00 00 44 28 10 28 44 00 00 00 44;
21B8: 44 44 3C 04 38 00 00 7C 08 10 20 7C 00 00 0E 08 30 08 08 0E 00 00 08 08;
21D0: 08 08 08 08 00 00 70 10 0C 10 10 70 00 00 14 28 00 00 00 00 00 3C 42 99;
21E8: A1 A1 99 42 3C 21 04 00 39 7E E6 08 28 04 3E 01 18 02 3E 00 32 62 FD 21;
2200: 04 00 39 7E E6 07 32 63 FD 21 03 00 39 7E E6 07 32 64 FD 21 02 00 39 7E;
2218: E6 07 D3 FE C9 21 02 00 39 7E E6 07 D3 FE C9 21 02 00 39 7E B7 28 04 3E;
2230: 01 18 02 3E 00 32 61 FD C9 21 02 00 39 7E E6 08 28 04 3E 01 18 02 3E 00;
2248: 32 62 FD 21 02 00 39 7E E6 07 32 63 FD C9 21 02 00 39 7E E6 07 32 64 FD;
2260: C9 21 60 FD 36 00 21 5F FD 36 00 3A 61 FD 0F E6 80 67 3A 62 FD 0F 0F E6;
2278: C0 B4 67 3A 64 FD 07 07 07 E6 F8 B4 21 63 FD B6 57 01 00 40 69 60 36 00;
2290: 03 78 D6 58 38 F6 01 00 58 69 60 72 03 78 D6 5B 38 F7 C9 21 02 00 39 7E;
22A8: E6 1F 32 5F FD 21 03 00 39 7E 32 60 FD 3E 17 FD 21 60 FD FD 96 00 D0 21;
22C0: 60 FD 36 17 C9 21 02 00 39 7E E6 1F 32 5F FD C9 F5 F5 21 06 00 39 7E D6;
22D8: 0A 20 1D 21 5F FD 36 00 21 60 FD 34 3E 17 FD 21 60 FD FD 96 00 D2 4D 24;
22F0: 21 60 FD 36 17 C3 4D 24 21 06 00 39 7E D6 08 20;
2300: 20 3A 5F FD B7 20 13 21 5F FD 36 1F 3A 60 FD B7 CA 4D 24 21 60 FD 35 C3;
2318: 4D 24 21 5F FD 35 C3 4D 24 21 06 00 39 7E 06 00 C6 E0 5F 78 CE FF 57 CB;
2330: 23 CB 12 CB 23 CB 12 CB 23 CB 12 ED 53 65 FD 3A 60 FD FD 21 02 00 FD 39;
2348: FD 77 00 FD 36 01 00 FD 7E 00 32 68 FD 21 67 FD 36 00 1E 00 3A 68 FD E6;
2360: 18 57 3A 67 FD E6 E0 6F 26 00 29 29 29 7B B5 5F 7A B4 57 0E 00 3A 68 FD;
2378: E6 07 47 3E 03 CB 38 CB 19 3D 20 F9 7B B1 32 67 FD 7A B0 32 68 FD 21 00;
2390: 00 39 3A 67 FD 77 3A 68 FD C6 40 23 77 21 5F FD 56 1E 00 4A 43 21 67 FD;
23A8: FD 21 00 00 FD 39 FD 7E 00 81 77 FD 7E 01 88 23 77 C1 E1 E5 C5 29 29 29;
23C0: 29 29 4D 7C C6 58 47 79 21 69 FD 82 77 78 8B 23 77 16 00 ED 4B 67 FD FD;
23D8: 21 ED 1E C5 ED 4B 65 FD FD 09 C1 FD 7E 00 02 21 67 FD 7E C6 00 77 23 7E;
23F0: CE 01 77 21 65 FD 34 20 04 21 66 FD 34 14 7A D6 08 38 D0 ED 5B 69 FD 3A;
2408: 61 FD 0F E6 80 67 3A 62 FD 0F 0F E6 C0 B4 67 3A 64 FD 07 07 07 E6 F8 B4;
2420: 21 63 FD B6 12 21 5F FD 34 3E 1F FD 21 5F FD FD 96 00 30 19 21 5F FD 36;
2438: 00 21 60 FD 34 3E 17 FD 21 60 FD FD 96 00 30 05 21 60 FD 36 17 F1 F1 C9;
2450: C1 E1 E5 C5 7E 23 57 B7 C8 E5 D5 33 CD D0 22 33 E1 18 F1 F1 E1 D1 D5 E5;
2468: F5 44 4D AF 6F B0 06 10 20 04 06 08 79 29 CB 11 17 30 01 19 10 F7 C9 DD;
2480: E5 DD 21 00 00 DD 39 21 FA FF 39 F9 21 0A 00 39 4D 44 23 23 DD 75 FE DD;
2498: 74 FF 69 60 23 23 5E 23 56 21 0E 00 39 DD 75 FC DD 74 FD DD 6E FC DD 66;
24B0: FD 7E 23 66 6F C5 E5 D5 CD 63 24 F1 F1 55 5C C1 DD 6E FE DD 66 FF 72 23;
24C8: 73 69 60 23 23 DD 75 FE DD 74 FF 69 60 23 23 7E DD 77 FA 23 7E DD 77 FB;
24E0: D1 E1 E5 D5 23 23 5E 23 56 69 60 7E 23 66 6F C5 E5 D5 CD 63 24 F1 F1 C1;
24F8: DD 7E FA 85 57 DD 7E FB 8C 5F DD 6E FE DD 66 FF 72 23 73 69 60 23 23 E3;
2510: 69 60 23 23 5E 23 56 69 60 23 7E DD 77 FE DD 6E FC DD 66 FD 23 66 D5 C5;
2528: DD 5E FE 2E 00 55 06 08 29 30 01 19 10 FA C1 D1 19 EB E1 E5 73 23 72 D1;
2540: E1 E5 D5 5E 69 60 23 66 C5 2E 00 55 06 08 29 30 01 19 10 FA C1 EB DD 6E;
2558: FC DD 66 FD 23 E5 FD E1 69 60 7E DD 77 FA DD 6E FC DD 66 FD 23 7E D5 C5;
2570: 5F DD 66 FA 2E 00 55 06 08 29 30 01 19 10 FA C1 D1 FD 75 00 FD 74 01 DD;
2588: 6E FC DD 66 FD 23 23 23 E3 DD 6E FC DD 66 FD 23 E5 FD E1 DD 6E FC DD 66;
25A0: FD 23 7E 23 66 6F 19 FD 75 00 FD 74 01 BF ED 52 3E 00 17 E1 E5 77 59 50;
25B8: 0A 4F DD 6E FC DD 66 FD 66 D5 59 2E 00 55 06 08 29 30 01 19 10 FA D1 4D;
25D0: 44 79 12 13 78 12 C1 E1 E5 C5 36 00 DD 7E 04 DD 86 08 6F DD 7E 05 DD 8E;
25E8: 09 67 DD 7E 06 DD 8E 0A 5F DD 7E 07 DD 8E 0B 57 DD F9 DD E1 C9 01 00 00;
2600: 78 B1 28 08 11 6E FD 21 FD 25 ED B0 21 00 00 22 5D FD C9;
END;
