:20000000784C6BF218290F75C885BD8D2200A5BE290F75E485BE852488BD8AFD85118D086A
:20002000004CC7F018290F75C885BD8D2200A5BE290F75E485BE8D24008511884CC2F01823
:20004000290F75C885BD8D2200A5BE290F75E48885118DBE004CC0F018290F75C885BDEA28
:200060008522A5BE290F8511884CBCF018290F75C885BDEA85228511884CB8F018290F75F1
:20008000C885BD8511884CB5F018290F8885114CB1F0A900852188D0308D2A008409841B32
:2000A000841D841C841F4C3FFA8D1100290F18EA8875C885BDEA8522A5BE290F75E485BE30
:2000C0008524BD8AFD85088506852ABE78FFB1B2851CB1B43D77FE851B18A5BD290F75C88D
:2000E00085BD8522ADBE00290F75E485BE8524C497D09F88BE78FFA900188D2A00851CB1DE
:20010000B43D77FE851B88A5BD290F75C885BD8522ADBE00290F75E485BE8524BE79FFB1C2
:20012000B48884B948A48AB1BB852A8597B99B008507683D77FE851BB929FE8505B98B0051
:2001400085B2A5BD290F75C885BD8522A5BE290F75E485BE8524B9830085218D2A0024808B
:20016000290FA8B981FD85E2A4B9BE78FFB1B43D77FE851B18A5BD290F75C885BD8522AD33
:20018000BE00290F75E485BE8524C68A88852ABE78FFB1B43D77FE851BA5BD6CE2000008F9
:2001A000040C020A060E0109050D030B070FA5C6290FA8C8A5C6AE8402D0FBC004B0188541
:2001C00002861FA230860D88D0FD85248514EAA006A200860DF00F8502852A861F88D0FD88
:2001E000A006852485148502852A86FE101FA900A220852486208621B923FEAAB91DFE85F0
:2002000002852A861B851CA5FEF0028509A6C0300BBDF3FD85FE984A9002C6C08810CFA5F1
:20022000C185B4A92085B2A482A5E2A2008502852A861C861B8409290FA8C888D0FD8510DD
:20024000A5E285208502852AA0028406A9058504A200EAA5C2850B0A850C860A8408852BEF
:20026000852C841D841FA0664C1CF1A900AA95009A86AFE8D0F8D8A2FD86BCE886B386B5AE
:20028000A9F085E34A85B68580A92485B8A5812AA5802A4581A68085808681A507852B10C6
:2002A0000EA9008596A28F24AE102AA29FD02624005006A244C6AED0082402501AE6AEA286
:2002C0005424A3701224941002CACAA5964A85964A6596859686A3AD820209FC2D800249CC
:2002E000FFF004A9008593AD82024AB017A21C869586B08692A9009596CA10FB86B1E6AF6C
:2003000085941031A592F02DA53C100EA580D002C692A21C869586B0D01BA900A220959255
:20032000CA10FB86B086B18694E6ADA91885B8A90285ACD05AA5B0290185F0F006A595F0B6
:2003400002C695A5B02907D00CA5A3290FD00485A3F002C6A3A5B0F005C6B04CCCF3C6B0C7
:20036000A5B1293F05AFF00CC924D052A5B1E90C85B1D04AA5AB05ACF018A204A00084B2E0
:200380009492CA10FBC6B1A92885B886AF86954C8CF5A5B1D004A94085B1F818A5AD6901AB
:2003A00085ADD8A6ADA900E0042AE0062AE0302A490765B885B8A20086ABA90385ACC6B10E
:2003C000A5B12907D00624933002E693A595F02FA2008619C9A09010C9C0B002A9C04A4A84
:2003E000492FA6AFA007D00E4A65954A4A4AAAA00CBDF2FFA6948518861A84164C7EF5A510
:20040000B1293FC908B012A5AB05ACF00CA5B0293CD006A907A204D016A203A906A49BD004
:20042000064AA49CD0019824BF5004A208A9042594851A8616A90C8518A5A3F02F3017A0A1
:200440000FA210A90385158A05F08517091298259485194CCDF4A208290FC90B9006A00F68
:20046000A908D0E1A200A003A903D0D9A596291E4A490F690F8517A9038515A007A5B029DD
:2004800007AA2494300DA946C596903D8AD03AE696D036A53C3015A596C978B026A00FC999
:2004A0002E8AD01FB002E696E696D017AD80022920D010A596C907900AC696A90A8517A0BC
:2004C0000884159824BF50014A25948519A906C59630028596A59625944A65A785A7F8A2A7
:2004E000FDB5AB690095ABE8D0F7D8A5B0290FAAA596C9589002A9582000FE84E824BF508C
:20050000014AA4A3F002A90CC908B002A9082000FE84E74A2000FE84F9A001A5A3F00629F8
:2005200010F00BD016A594F0312C80023009A90038E5E7AA4C3EF5E680701FA5E7AA18650B
:20054000AE85AE188A100965B6B00D69A04C58F565B6C9A09002E9A085B6883021A595D0C8
:200560001D24A65019300CA6E8A90038E5F925944C3EF5A90038E5E8AAA5F94C6EF5A00025
:2005800084B2A207B59AF001C8CAD0F8A5B14A4A290F85FB84F238A595D00DA596E5B8851E
:2005A000B238A598E596859808900CA599E5B2859924B21012B0034C91F6A206B59A959B40
:2005C000CAD0F9A6C7B037B0EEA5C7E5F248A59BF021C6C7A5AC05AB2594F017F818A5AB0C
:2005E000E90085ABA5ACE90085ACD805ABD004A9348595A2FAB5A295A1E8D0F968AABD007B
:20060000F2A203E4F29049A6B1E0E024819002503F303D29E1091624B21043A69CD0314A6B
:20062000859BE6C7A5ACA201E4ADE902F018A5AB05AC2594F010F8A594290165AB85ABA57B
:20064000AC690085ACD8A5AE49800A269B4C91F6A90024B21004859B303785A11033A81087
:2006600012A581A6ADE00490010A2903089828D00229EF85A1A5AE49800A2494100BA5AD21
:20068000C907B00DA5A0F0096A08A5A14A282A85A1A5994A297818690185BB28B059C6A58E
:2006A000A5A62907F0164AD00FA5A6293085A60A0A05A685A64CF7F6C6A6D03BA5A4F005E9
:2006C000C6A44CF7F6A5802930C920D002A90085E7A581A6ADE00390014AA6E7D0014A85C5
:2006E000A4A5E745A62930F006A5E7090785E7A5A60A0A05E785A6AC8402D0FB8884028483
:2007000000A6FBBD0DFE85820A0A0A85BFBDB9FD8509490385FAA5B1293FC92BB00EC924DE
:20072000900AE91FA8B9F4FD850984C0A2018402A95E8D9602A5B6187D69FEC9A09002E963
:20074000A0850220C9FD95F5852BA90085028500CA10E28502A5A6290785F3A000848A8534
:2007600002B1BB85974A4A85EF84F084FC84EA84EC84ED84EE98AA2493100486AEA9FF85C4
:20078000028501A5A6C4F39053D04FC000F04B4A2978A8B908FDC920F03C85E7A90485F0DE
:2007A000A90085E8A59849FF4A18E59826E80A26E824E750030A26E80A26FC0A26FC24E7C0
:2007C0003007A5EA65E84CD4F7A901E5FC85FCA5EA38E5E885EAA4ECA5A60A0A85F1B9447E
:2007E000FC85BA38F943FCA8B9ECFDA8A5EA85E91865ED85EDA5E91004B006C6EE9002E6FF
:20080000EE18690895C8E4EFF04DE8E4BAF02FB94CFC24F1501B100318900349FF3865EA41
:20082000C8C6F0D0C91865FC48A90485F0684CEEF7A5EA50ECA5EE85E8A5ED4CD6F8E6ECDC
:20084000A4ECC008B0EFA90324F150083002A9FD65EA85EA4C83F784B9A48AB99B00D0039A
:200860004C23F94A290808D004A908D006A90DB002A90366F938F5C885EBA90085E828F02C
:20088000148A491F85F80A0A1865F8E92424F9300449FFC6E81865ED85E7A5EE65E885E8D5
:2008A000A5972903F0114AF009A900900DE5EB4CBAF8A5EB4CBAF8A5EB0A18690A85EB4A0B
:2008C0004A1824EB100A09C065E7B00AC6E8900665E79002E6E846E86A46E86A85A21865FA
:2008E000AEE01AB064693CA48AC002B002E903C9E09002A900C9789002A97720C9FDA48A1E
:20090000998300A5FAF0074AD013C004B015B99B0029110946999B00B9B1FDD013B9A9FDB5
:200920004C30F9A904998300A997C0069002A98E38E597998B00E68AA48AB1BB85974A4A18
:2009400085EFC6EFA4B94C0AF8695885F418A5AE69414A4A4A4A85E7A5AE1869404A186505
:20096000E749FF695D20C9FD85E2A5F420C9FD85F7A90085F985BD85BEA202A006848AC670
:20098000BB2595D01CA5984A4AA696E0209005A5B00A0A0A290885C2A5B00A290405C28591
:2009A000C2A5F420C9FD85C6A202B5F585029520290FA8C888D0FD95108502CA10ECA4FB93
:2009C000A201B9EEFE9506A9079504A9209525CA10F08502852AA21AB5C838E91095E4CABB
:2009E00010F6852BA5984A297885C3A5A52907C907D002A90685C405C3A8B901FD4A4AAA58
:200A0000A5C40A49F185C575C895C8B5E438E5C595E4C6C43014B900FD4A4AAAB5C838E5F5
:200A2000C595C8B5E41865C595E4A5964A4A4AC9099002A90949FF18693885C14CAEF1855A
:200A40001BA2F0A9708524A931850A8510851185148621CA8620840B840CA9428508A06844
:200A600084B9A20224B92013FCA9038526852585048505A958A6F3D00285F3A9FF850285DD
:200A80002A850F85F5A5A74A4A4A4A4A259485F8A2F4B5F505F895F529F8E8C948D003E88E
:200AA000D0F04868E830FBA928850685072057FC84F5A205A902851F2012FCA5B029200518
:200AC000AF85F9A5ADC910B008A5F185F3A97285F19006A900851F4868A5AF850205AB0544
:200AE000ACF01AEAA268A5ADC905B002A260A5B1293F05F9C908B002A2584C13FBA2DFA5BF
:200B0000F9F002A2E886EF86ED86EB86E9A9C88507850686EF2057FCA007A5B025AF4A4AC4
:200B20004A291FC914B009A000C90C9003E90CA884E798490785E8A9F0A20C38A0FC94E891
:200B400095E7E908CACAD0F6852B8502852A8608860FA90C85068507A2F3A001A940EA856B
:200B6000108511851485248620840A8502852AA00688D0FD852BA4E7B1F385F9B1F1AAB1CE
:200B8000E98502852A851BB1EB851CB1ED851BB1EFA4F9851C861B841C851BC6E710D7A91F
:200BA00080852085218502852A0A851B851C851BA978850EA931850A8505852BA910852490
:200BC000A007841FB9C0FCAAB9A0FC851B8502852AB9F8FC8508B9A8FC851CB9B0FC851B44
:200BE000E6F8B9B8FC851C861B851CA900850888C6E810D0A02F85028401851B851CA219A4
:200C0000850E851B851484248502852A8E96024C8DF2B818A00AA9FF99EA00B5A8B0094A34
:200C2000E004D001B838B005CA0A0A0A182978D0067006A958D00424F4EAEA99E90088881A
:200C400010D46000060B0F131618191A0102000102020001010202A00884F8C8B1F3851B7E
:200C6000B1F1A203860F85028D1C00B1EF851BB1EB85F9B1EDAAB1E945F5A8ADF900861C02
:200C8000851B841C861BA4F8B1F3851BB1F1851CC6F810D7841C841B841CA9FF850F600030
:200CA0000C060301000000002D29E9A9ED612F0050585C565311F000BA8ABAA23A80FE00B3
:200CC000E9ABAFADE9000000000000F7958790F000474177557500000003004B4A6B0008D4
:200CE000008080AAAABA27220000001111171517000000775173517784D6D61A262644005B
:200D000000001A2F3F4B565C20001B30404C565C81061C31414D575D20061D32424D575DD7
:200D200021071F33434E585D21092034434F585E200B2235444F595E210C23364550595F8E
:200D4000410E24374551595F2010263846515A5F8111273A47525A602013283B48525B608C
:200D600021142A3C49535B6081152B3D49545B60C1172C3E4A545B6081182D3F4B555B6030
:200D800020A9A9897C6C583F24040A0A0A0A0A0A0A0A0A0A0A080806060404040202020213
:200DA0000202020202020202024776A5B1D6DEE2E26060CDCDBCBCE2E204030202030303EC
:200DC000030340828484848482A8290F85E7984A4A4A4A85E81865E70A0A0A0A05E8B00413
:200DE000C9F090036910186901497060000000000702061A18161424343242526272828232
:200E00004A48187D9EF14A4A4A4AA86860000002020000000000E0D00E0EC0C0C0FFFEFC7B
:200E2000E8C080FEFCF87040000505000000000000000000000000009A7DBE7DBE7DBE593A
:200E40007E7E5A00000000000000000000000000000000000000000066666600000000000A
:200E600000000000000000000000583E7C3E7C1A7E180000000000FFFFFFFFFFFF000000FC
:200E80000000000000000000000000000000000000000000000000000000007DBE7DBE7E5E
:200EA0001800000000000000007C3E7C180000000000000000242400000000000000000084
:200EC000000000000000666600000000000000381C180000000000003C180000001800006E
:200EE000000000000000000000000000000034060202060606060600C00C0C0AE6140000BA
:200F0000FFFFC39999999999C3FFC3E7E7E7E7C7E7FF819F9FC3F9B9C3FFC3B9F9F3F3B93B
:200F2000C3FFF3F381B3D3E3F3FF83B9F9839F9F81FFC39999839F9DC3FFE7E7E7F3F9BDE3
:200F400081FFC39999C39999C3FFC3B9F9C19999C3FFC39999999999C3FFFFFFFFFFFFFFBF
:200F6000FFFFA581A5E7A581BDFFC7EFC78182828281FF00000000000000000001010101D7
:200F80000202020203030303040404040505050506060606070707070808080809090909A1
:200FA0000A0A0A0A0B0B0B0B0C0C0C0C0D0D0D0D0E0E0E0E0F0F0F0F101010101111111181
:200FC000121212121313131314141414151515151616161617171717181818181919191961
:200FE0000808090F0F0F0E08000808487878783808000E0E0E0E130E0E13171D00F000F007
:00000001FF
